{
  "routes": [
    {
      "method": "GET",
      "path": "/",
      "handler": "mass-importer.index",
      "config": {
        "policies": []
      }
    },
    {
      "method": "GET",
      "path": "/pornhub/:id",
      "handler": "mass-importer.pornhubVideo",
      "config": {
        "policies": []
      }
    },
    {
      "method": "POST",
      "path": "/pornhub/:id/thumbnail",
      "handler": "mass-importer.updatePornhubVideoThumbnail",
      "config": {
        "policies": []
      }
    },
    {
      "method": "POST",
      "path": "/pornhub/sync",
      "handler": "mass-importer.syncPornhub",
      "config": {
        "policies": []
      }
    },
    {
      "method": "GET",
      "path": "/xhamster/:id",
      "handler": "mass-importer.xhamsterVideo",
      "config": {
        "policies": []
      }
    },
    {
      "method": "POST",
      "path": "/xhamster/:id/thumbnail",
      "handler": "mass-importer.updatexhamsterVideoThumbnail",
      "config": {
        "policies": []
      }
    },
    {
      "method": "POST",
      "path": "/approve-video",
      "handler": "mass-importer.approveVideo",
      "config": {
        "policies": []
      }
    },
    {
      "method": "POST",
      "path": "/hide-video",
      "handler": "mass-importer.hideVideo",
      "config": {
        "policies": []
      }
    },
    {
      "method": "POST",
      "path": "/settings",
      "handler": "mass-importer.updateSettings",
      "config": {
        "policies": []
      }
    },
    {
      "method": "GET",
      "path": "/settings",
      "handler": "mass-importer.getSettings",
      "config": {
        "policies": []
      }
    }
  ]
}