{
  "kind": "collectionType",
  "collectionName": "videos",
  "info": {
    "name": "Video",
    "description": ""
  },
  "options": {
    "increments": true,
    "timestamps": true,
    "draftAndPublish": true
  },
  "attributes": {
    "title": {
      "type": "string"
    },
    "remoteId": {
      "type": "string"
    },
    "thumbnail": {
      "model": "file",
      "via": "related",
      "allowedTypes": [
        "images"
      ],
      "plugin": "upload",
      "required": false
    },
    "provider": {
      "via": "videos",
      "model": "provider"
    },
    "likes": {
      "default": 0,
      "type": "integer"
    },
    "dislikes": {
      "type": "integer",
      "default": 0
    },
    "predefined_thumb": {
      "type": "string"
    },
    "slug": {
      "type": "uid",
      "targetField": "title"
    }
  }
}
